{
    "Natural constants":
    {
        "Boltzmann constant": 1.38064852e-23,
        "Stefan-Boltzmann constant": 5.670367e-8,
        "Gravitational constant": 6.67408e-11,
        "Vacuum speed of light": 299792458.0,
        "Avogadro's constant": 6.022140857e23
    },
    "Units":
    {
        "Atomic unit": 1.660538782e-27,
        "Seconds in a year": 31536000,
        "Astronomic unit": 149597870700
    },
    "Solar parmeter":
    {
        "Solar mass": 1.98855e30,
        "Solar radius": 6.96342e8,
        "Solar luminosity": 3.828e26
    },
    "Grid parameter": 
    {
        "N_radius" : 128,
        "N_theta" : 13
    },
    "Boxsize":
    {
        "Minimum radius" : 0.2,
        "Maximum radius" : 4,
        "Minimum theta": 1.390796327,
        "Maximum theta": 1.750796327
    },
    "Gas parameter":
    {
        "Molecular weight": 2.353,
        "Adiabatic index": 1.42,
        "Plank opacity ratio": 0.33333333,
        "Reference dust-to-gas ratio": 0.01,
        "Minimum dust-to-gas ratio": 1e-10,
        "Evaporation temperature range": 100,
        "Stellar dust opacity": 210,
        "Reemitted dust opacity": 70,
        "Gas opacity": 1e-5,
        "Prandtl number": 0.68,
        "Q_tau": 1
    },
    "Stellar parameter":
    {
        "Stellar radius": 2.5,
        "Stellar temperature": 10000,
        "Stellar mass": 2.5,
        "Accretion rate": 1e-8,
        "Stellar luminosity": 56
    },
    "Viscosity parameter":
    {
        "Alpha inner": 1.9e-2,
        "Alpha outer": 1.9e-2,
        "MRI temperature": 1000,
        "Delta temperature": 25
    },
    "Simulation parameter":
    {
        "Viscous heat": true,
        "Heat conduction": true,
        "Dust step": false,
        "Dust diffusion": true,
        "First diffusive step": 0,
        "Dust diffusion time": 1e5,
        "self-gravity": true,
        "Test mode": false,
        "Surface density mode": 1,
        "Alpha parameter mode": 1,
        "Surface density evolution": false,
        "Number of steps 1": 3,
        "Number of steps 2": 0,
        "Number of steps 3": 0,
        "Size of step 1": 1e6,
        "Size of step 2": 0,
        "Size of step 3": 0,
        "Dust varying 1": true,
        "Dust varying 2": true,
        "Dust varying 3": true
    },
    "Integration parameter":
    {
        "Order of radial scheme": 4,
        "Order of theta scheme": 4,
        "Logarithmic dust increase": 30,
        "Density renormalization": false,
        "Restart from step": 0
    },
    "Umfpack parameter":
    {
        "LU drop tolerance": 0.0
    }
}
